[
  {
    "repoId": "01",
    "repoName": "F-Droid ",
    "repoUrl": "https://mirror.cyberbits.eu/fdroid/repo",
    "repoMirrors": [
      "https://f-droid.org/repo",
      "https://fdroid.tetaneutral.net/fdroid/repo",
      "https://bubu1.eu/fdroid/repo"
    ],
    "repoFingerprint": "43 23 8D 51 2C 1E 5E B2 D6 56 9F 4A 3A FB F5 52 34 18 B8 2E 0A 3E D1 55 27 70 AB B9 A9 C9 CC AB",
    "repoDescription": "F-Droid's mainline repository, serving apps build and signed by F-Droid"
  },
  {
    "repoId": "02",
    "repoName": "F-Droid Archive",
    "repoUrl": "https://f-droid.org/archive",
    "repoMirrors": [],
    "repoFingerprint": "",
    "repoDescription": "F-Droid's mainline repository, serving apps build and signed by F-Droid"
  },
  {
    "repoId": "03",
    "repoName": "Guardian Project",
    "repoUrl": "https://guardianproject.info/fdroid/repo",
    "repoMirrors": [
      "https://s3.amazonaws.com/guardianproject/fdroid/repo",
      "http://bdf2wcxujkg6qqff.onion/fdroid/repo "
    ],
    "repoFingerprint": "B7 C2 EE FD 8D AC 78 06 AF 67 DF CD 92 EB 18 12 6B C0 83 12 A7 F2 D6 F3 86 2E 46 01 3C 7A 61 35",
    "repoDescription": "Guardian Project's mainline repository."
  },
  {
    "repoId": "04",
    "repoName": "microG Project ",
    "repoUrl": "https://microg.org/fdroid/repo",
    "repoMirrors": [],
    "repoFingerprint": "9B D0 67 27 E6 27 96 C0 13 0E B6 DA B3 9B 73 15 74 51 58 2C BD 13 8E 86 C4 68 AC C3 95 D1 41 65",
    "repoDescription": "Official F-Droid repo for the open-source implementation of Google Play Services"
  },
  {
    "repoId": "05",
    "repoName": "microG Project Archive",
    "repoUrl": "https://microg.org/fdroid/archive",
    "repoMirrors": [],
    "repoFingerprint": "9B D0 67 27 E6 27 96 C0 13 0E B6 DA B3 9B 73 15 74 51 58 2C BD 13 8E 86 C4 68 AC C3 95 D1 41 65",
    "repoDescription": "Official F-Droid archive for the open-source implementation of Google Play Services "
  },
  {
    "repoId": "06",
    "repoName": "I2P ",
    "repoUrl": "https://f-droid.i2p.io/repo",
    "repoMirrors": [],
    "repoFingerprint": "68 E7 65 61 AA F3 F5 3D D5 3B A7 C0 3D 79 52 13 D0 CA 17 72 C3 FA C0 15 9B 50 A5 AA 85 C4 5D C6",
    "repoDescription": "I2P is an anonymous network, exposing a simple layer that applications can use to anonymously and securely send messages to each other"
  },
  {
    "repoId": "07",
    "repoName": "IzzyOnDroid",
    "repoUrl": "https://apt.izzysoft.de/fdroid/repo",
    "repoMirrors": [],
    "repoFingerprint": "3B F0 D6 AB FE AE 2F 40 17 07 B6 D9 66 BE 74 3B F0 EE E4 9C 25 61 B9 BA 39 07 37 11 F6 28 93 7A",
    "repoDescription": "Applications in this repository are official binaries built by the original application developers, taken from their repositories"
  },
  {
    "repoId": "08",
    "repoName": "Briar",
    "repoUrl": "https://briarproject.org/fdroid/repo",
    "repoMirrors": [],
    "repoFingerprint": "1F B8 74 BE E7 27 6D 28 EC B2 C9 B0 6E 8A 12 2E C4 BC B4 00 81 61 43 6C E4 74 C2 57 CB F4 9B D6",
    "repoDescription": "Messenger that does require any server and hides metadata."
  },
  {
    "repoId": "09",
    "repoName": "Bromite",
    "repoUrl": "https://fdroid.bromite.org/fdroid/repo",
    "repoMirrors": [],
    "repoFingerprint": "E1 EE 5C D0 76 D7 B0 DC 84 CB 2B 45 FB 78 B8 6D F2 EB 39 A3 B6 C5 6B A3 DC 29 2A 5E 0C 3B 95 04",
    "repoDescription": "Bromite is Chromium plus ad blocking and enhanced privacy; take back your browser."
  },
  {
    "repoId": "10",
    "repoName": "Haagch",
    "repoUrl": "https://haagch.frickel.club/files/fdroid/repo",
    "repoMirrors": [],
    "repoFingerprint": "",
    "repoDescription": "Colorful little collection of mostly non-FOSS apps"
  },
  {
    "repoId": "11",
    "repoName": "Riot",
    "repoUrl": "https://fdroid.krombel.de/riot-stable/fdroid/repo",
    "repoMirrors": [],
    "repoFingerprint": "",
    "repoDescription": "Riot Messenger"
  },
  {
    "repoId": "12",
    "repoName": "StoryMaker",
    "repoUrl": "https://s3.amazonaws.com/storymaker/fdroid/repo",
    "repoMirrors": [],
    "repoFingerprint": "",
    "repoDescription": "Create audio, video and photo stories"
  },
  {
    "repoId": "13",
    "repoName": "Tox",
    "repoUrl": "https://repo.tox.im/android",
    "repoMirrors": [],
    "repoFingerprint": "",
    "repoDescription": "Tox Secure Messenger with audio and video capabilities"
  },
  {
    "repoId": "14",
    "repoName": "Umbrella",
    "repoUrl": "https://secfirst.org/fdroid/repo",
    "repoMirrors": [],
    "repoFingerprint": "39 EB 57 05 2F 8D 68 45 14 17 68 19 D1 64 5F 6A 0A 7B D9 43 DB C3 1A B1 01 94 90 06 AC 0B C2 28",
    "repoDescription": "Security advices, tutorials etc"
  },
  {
    "repoId": "15",
    "repoName": "Monerujo",
    "repoUrl": "https://f-droid.monerujo.io/fdroid/repo",
    "repoMirrors": [],
    "repoFingerprint": "A8 2C 68 E1 4A F0 AA 6A 2E C2 0E 6B 27 2E FF 25 E5 A0 38 F3 F6 58 84 31 6E 0F 5E 0D 91 E7 B7 13",
    "repoDescription": "An Android Monero wallet"
  },
  {
    "repoId": "16",
    "repoName": "Nanodroid",
    "repoUrl": "https://nanolx.org/fdroid/repo",
    "repoMirrors": [],
    "repoFingerprint": "86 2E D9 F1 3A 39 81 43 2B F8 6F E9 3D 14 59 6B 38 1D 75 BE 83 A1 D6 16 E2 D4 4A 12 65 4A D0 15",
    "repoDescription": "NanoDroid is a installer for various OpenSource related things, most noticably microG and F-Droid. It supports direct /system installation, both devices with or without A/B partition scheme, aswell as Magisk Mode (module) installation. It also includes several tools (eg. GNU Bash, GNU Nano, more), scripts, fonts, sounds and additional features (system debloating, init scripts, automatic logcat creation), aswell as a companion F-Droid Repository"
  },
  {
    "repoId": "17",
    "repoName": "Netsyms Technologies",
    "repoUrl": "https://repo.netsyms.com/fdroid/repo",
    "repoMirrors": [],
    "repoFingerprint": "25 81 BA 7B 32 D3 AB 44 31 80 C4 08 7C AB 6A 7E 8F B2 58 D3 A6 E9 88 70 EC B3 C6 75 E4 D6 44 89",
    "repoDescription": "Open source apps created by Netsyms Technologies. Includes NotePost (Google Keep alternative), TerranQuest (similar to Pokemon Go), and a few other apps."
  },
  {
    "repoId": "18",
    "repoName": "VideLibri",
    "repoUrl": "https://fdroid.videlibri.de/repo",
    "repoMirrors": [],
    "repoFingerprint": "38 89 88 e3 a5 3b 6f 91 d1 ae 39 78 4e a4 b5 f1 a1 2b 22 d3 4f 8e 33 63 e5 c7 f7 0a 1c 57 a6 f4",
    "repoDescription": "The world’s first universal library app to track the books lend from a (mostly German) public library, renew them, and access other features of a library catalog/OPAC."
  },
  {
    "repoId": "19",
    "repoName": "KDE Android",
    "repoUrl": "https://cdn.kde.org/android/fdroid/repo",
    "repoMirrors": [],
    "repoFingerprint": "B3 EB E1 0A FA 6C 5C 40 03 79 B3 44 73 E8 43 D6 86 C6 1A E6 AD 33 F4 23 C9 8A F9 03 F0 56 52 3F",
    "repoDescription": "KDE Android Nightly builds"
  },
  {
    "repoId": "20",
    "repoName": "C:Geo",
    "repoUrl": "https://fdroid.cgeo.org/nightly",
    "repoMirrors": [],
    "repoFingerprint": "37 0B B4 D5 50 C3 91 D5 DC CB 6C 81 FD 82 FD A4 89 29 64 76 4E 08 5A 09 B7 E0 75 E9 BA D5 ED 98",
    "repoDescription": "Geo Caching software"
  },
  {
    "repoId": "21",
    "repoName": "Unofficial Mozilla ",
    "repoUrl": "https://rfc2822.gitlab.io/fdroid-firefox/fdroid/repo",
    "repoMirrors": [],
    "repoFingerprint": "8F 99 2B BB A0 34 0E FE 62 99 C7 A4 10 B3 6D 9C 88 89 11 4C A6 C5 80 13 C3 58 7C DA 41 1B 4A ED",
    "repoDescription": "Unofficial build of Mozilla apps for android"
  },
  {
    "repoId": "22",
    "repoName": "Onosendai",
    "repoUrl": "https://onosendai.herokuapp.com/repo",
    "repoMirrors": [],
    "repoFingerprint": "ED 48 CA BC 66 D2 B3 3A 37 B0 A6 50 61 18 4B F5 77 1C 7E 7A 95 66 8E 34 B2 ED C2 D9 3D 17 6A 28",
    "repoDescription": ""
  },
  {
    "repoId": "23",
    "repoName": "Feinstaub Widget",
    "repoUrl": "https://kaffeemitkoffein.de",
    "repoMirrors": [],
    "repoFingerprint": "2F 27 5C B8 37 35 FE 79 75 44 9C E8 00 CA 84 07 B5 01 9D 5F 7B 6A BC B3 0F 36 51 C5 20 A3 72 61",
    "repoDescription": "Displays sensor data from the Luftdaten.info project"
  },
  {
    "repoId": "24",
    "repoName": "Frostnerd",
    "repoUrl": "https://fdroid.frostnerd.com/fdroid/repo",
    "repoMirrors": [],
    "repoFingerprint": "74 BB 58 0F 26 3E C8 9E 15 C2 07 29 8D EC 86 1B 50 69 51 75 50 FE 0F 1D 85 2F 16 FA 61 1D 2D 26",
    "repoDescription": "FOSS apps made by Frostnerd.com"
  },
  {
    "repoId": "25",
    "repoName": "Zeronet",
    "repoUrl": "https://f-droid.mkg20001.io/repos/jVVkbOD2it_bf_UxFIGGh1qa950KrUsq/repo",
    "repoMirrors": [],
    "repoFingerprint": "00 5E 88 8A 5A 20 3D 40 E2 8F 37 2B 93 9B 8E 59 95 FB 29 08 1E FC 84 5D B9 9A 8D 4C 14 B5 09 E2",
    "repoDescription": "ZeroNet Android App Nightlies & Stable Releases"
  },
  {
    "repoId": "26",
    "repoName": "Kali Nethunter",
    "repoUrl": "https://store.nethunter.com/repo",
    "repoMirrors": [],
    "repoFingerprint": "7E 41 8D 34 C3 AD 4F 3C 37 D7 E6 B0 FA CE 13 33 23 64 45 9C 86 21 34 EB 09 9A 3B DA 2C CF 44 94",
    "repoDescription": "Kali NetHunter, apps in this repository are official binaries built by the original application developers."
  },
  {
    "repoId": "27",
    "repoName": "Bitwarden",
    "repoUrl": "https://mobileapp.bitwarden.com/fdroid/repo",
    "repoMirrors": [],
    "repoFingerprint": "BC 54 EA 6F D1 CD 51 75 BC CC C4 7C 56 1C 57 26 E1 C3 ED 7E 68 6B 6D B4 B1 8B AC 84 3A 3E FE 6C",
    "repoDescription": "Bitwarden repository"
  }
]